HakyImLab Notes - ERAP2 fine-mapping
…
Rows: 2439 Columns: 7
── Column specification ────────────────────────────────────────────────────────
Delimiter: ","
chr (3): tissue, gene_id, variant_id
dbl (4): rank, pip, log10_abvf, cluster_id

ℹ Use `spec()` to retrieve the full column specification for this data.
ℹ Specify the column types or set `show_col_types = FALSE` to quiet this message.

Code

##
intron %>% filter(tissue=="Cells_EBV-transformed_lymphocytes") %>% arrange(desc(pip))

# A tibble: 122 × 7
   tissue                  gene_id  rank variant_id    pip log10_abvf cluster_id
   <chr>                   <chr>   <dbl> <chr>       <dbl>      <dbl>      <dbl>
 1 Cells_EBV-transformed_… intron…     2 chr5_9690… 0.250        25.8          2
 2 Cells_EBV-transformed_… intron…     1 chr5_9690… 0.250        25.8          2
 3 Cells_EBV-transformed_… intron…     3 chr5_9690… 0.218        27.7          1
 4 Cells_EBV-transformed_… intron…     4 chr5_9690… 0.218        27.7          1
 5 Cells_EBV-transformed_… intron…     5 chr5_9690… 0.0902       27.7          1
 6 Cells_EBV-transformed_… intron…     7 chr5_9690… 0.0426       27.7          1
 7 Cells_EBV-transformed_… intron…     6 chr5_9690… 0.0426       27.7          1
 8 Cells_EBV-transformed_… intron…     8 chr5_9690… 0.0426       27.7          1
 9 Cells_EBV-transformed_… intron…     9 chr5_9689… 0.0380       25.8          2
10 Cells_EBV-transformed_… intron…    10 chr5_9690… 0.0371       25.8          2
# ℹ 112 more rows
…
